{
  "cordova-plugin-console": {
    "source": {
      "type": "registry",
      "id": "cordova-plugin-console@^1.1.0"
    },
    "is_top_level": true,
    "variables": {}
  },
  "cordova-plugin-device": {
    "source": {
      "type": "registry",
      "id": "cordova-plugin-device@^1.1.7"
    },
    "is_top_level": true,
    "variables": {}
  },
  "cordova-plugin-splashscreen": {
    "source": {
      "type": "registry",
      "id": "cordova-plugin-splashscreen@^4.1.0"
    },
    "is_top_level": true,
    "variables": {}
  },
  "cordova-plugin-statusbar": {
    "source": {
      "type": "registry",
      "id": "cordova-plugin-statusbar@^2.4.1"
    },
    "is_top_level": true,
    "variables": {}
  },
  "cordova-plugin-whitelist": {
    "source": {
      "type": "registry",
      "id": "cordova-plugin-whitelist@^1.3.3"
    },
    "is_top_level": true,
    "variables": {}
  },
  "cordova-plugin-fcm": {
    "source": {
      "type": "registry",
      "id": "cordova-plugin-fcm@^2.1.2"
    },
    "is_top_level": true,
    "variables": {}
  },
  "cordova-plugin-image-picker": {
    "source": {
      "type": "registry",
      "id": "cordova-plugin-image-picker@^1.1.3"
    },
    "is_top_level": true,
    "variables": {}
  },
  "cordova-plugin-camera": {
    "source": {
      "type": "registry",
      "id": "cordova-plugin-camera@^2.4.1"
    },
    "is_top_level": true,
    "variables": {}
  },
  "cordova-plugin-compat": {
    "source": {
      "type": "registry",
      "id": "cordova-plugin-compat@^1.1.0"
    },
    "is_top_level": false,
    "variables": {}
  },
  "cordova-plugin-geolocation": {
    "source": {
      "type": "registry",
      "id": "cordova-plugin-geolocation@^2.4.3"
    },
    "is_top_level": true,
    "variables": {}
  },
  "cordova-plugin-ionic-keyboard": {
    "source": {
      "type": "registry",
      "id": "cordova-plugin-ionic-keyboard@^2.0.5"
    },
    "is_top_level": true,
    "variables": {}
  },
  "cordova-plugin-ionic-webview": {
    "source": {
      "type": "registry",
      "id": "cordova-plugin-ionic-webview@^1.1.19"
    },
    "is_top_level": true,
    "variables": {}
  },
  "cordova-plugin-inappbrowser": {
    "source": {
      "type": "registry",
      "id": "cordova-plugin-inappbrowser@2.0.2"
    },
    "is_top_level": true,
    "variables": {}
  }
}